org/fani/mypaint/App$1.class
org/fani/mypaint/impl/PaintWindowImpl.class
org/fani/mypaint/impl/Activator$1.class
org/fani/mypaint/impl/Activator.class
org/fani/mypaint/PaintWindow.class
org/fani/mypaint/App.class
